maxPlayers = 4;

player = {};
player [0] = {id = 0, name = "kushan", raceName = "kushan",startPos = 0,
	resources = 3000} -- Player
player [1] = {id = 1, name = "taiidan", resources = 0, raceName = "taiidan", startPos = 0} -- Civilian


function AddShipsInSOB(count,sobgroup,shiptype,location,owner,rotation,squadronCount,hyperspace)
	for i=1,count do
		name = sobgroup..shiptype..i
		addSquadron(name,shiptype,location,owner,rotation,squadronCount,hyperspace)
		addToSOBGroup(name, sobgroup)
	end
end

function DetermChunk()
	addSquadron("sq_gun", "_infection",	{ 0, 0, 0,},0,{0,180,0},0,0)
	addSquadron("sq_gun", "_infection",	{ 1000, 0, 0,},0,{0,180,0},0,0)
	addSquadron("sq_gun", "_infection",	{ 2000, 0, 0,},0,{0,180,0},0,0)
	--addSquadron("sq_gun", "_siege",	{ 900, 0, 0,},0,{0,180,0},0,0)
	--addSquadron("sq_gun", "_siege",	{ -900, 0, 0,},0,{0,180,0},0,0)
	addSquadron("sq_gun", "kus_carrier",	{ 1000, 0, -2000,},0,{0,180,0},0,0)

	addSquadron("sq_mothership", "tai_Mothership",	{ 0, 0, -10000,},1,{0,0,0},0,0)
	addSquadron("sq_target", "tai_Mothership",	{ 0, 2000, -10000,},1,{0,0,0},0,0)

	addSquadron("sq_target", "kus_probe",	{ 3000, 0, -10000,},0,{0,180,0},0,0)
	addSquadron("sq_target", "kus_probe",	{ -3000, 0, -10000,},0,{0,180,0},0,0)
	i=0
	createSOBGroup("so_ints")
	while(i < 13 ) do

		addSquadronInSob("so_ints", "tai_interceptor",	{ 500, 0, 0},1,{0,180,0},0,0)
		i=i+1
	end

	i=0
	createSOBGroup("so_cts")
	while(i < 13 ) do

		addSquadronInSob("so_cts", "tai_heavycorvette",	{ 1500, 0, 0},1,{0,180,0},0,0)
		i=i+1
	end

	i=0
	createSOBGroup("so_ffs")
	while(i < 13 ) do

		addSquadronInSob("so_ffs", "tai_assaultfrigate",	{ 2500, 0, 0},1,{0,180,0},0,0)
		i=i+1
	end

	createSOBGroup("so_mothership")
	addToSOBGroup("sq_mothership","so_mothership")
	addSphere("vol_patpoi_1",{0,0,500},50)
	addSphere("vol_patpoi_2",{-500,0,0},50)
	addSphere("vol_patpoi_3",{0,0,-500},50)
	addSphere("vol_patpoi_4",{500,0,0},50)
	addPath("pat_patrol","vol_patpoi_1","vol_patpoi_2","vol_patpoi_3","vol_patpoi_4")


end

function NonDetermChunk()
	fogSetActive(0)
	setGlareIntensity(0)
	--setLevelShadowColour(0,0,.2,1)
	loadBackground("ez05")
	--loadBackground("Kelym")
	--loadBackground("black")
	--setSensorsManagerCameraDistances(10000, 50000)
	setDefaultMusic("data:sound/music/battle/nirgal_b")
end

name_i = 0
function addSquadronInSob(s_sobname,s_shipname,t_position,i_player,t_rot,i_count,b_hyperspace)
	sq_name = "un_sq_"..name_i
	name_i = name_i+1
	addSquadron(sq_name, s_shipname,t_position,i_player,t_rot,i_count,b_hyperspace)
	addToSOBGroup(sq_name,s_sobname)	
end
function DrawLine(s_sobname,t_startPos,i_player,t_rot,i_hs,t_vector,i_count)
	temp_pos = {}
	temp_pos[1] = t_startPos[1]
	temp_pos[2] = t_startPos[2]
	temp_pos[3] = t_startPos[3]

	i=0
	while(i<i_count) do
		addSquadron("temp", s_sobname, temp_pos, i_player, t_rot,0,i_hs) --top
		temp_pos[1] = temp_pos[1]+t_vector[1]
		temp_pos[2] = temp_pos[2]+t_vector[2]
		temp_pos[3] = temp_pos[3]+t_vector[3]
		i=i+1
	end
end

function NavLane(startX,startY,startZ,radius,spacing,length,ship)
	i=0
	while(i*spacing<length) do
		addSquadron("Lane", ship, {startX,startY+radius,startZ+i*spacing}, -1, {0,0,0},0,0) --top
		addSquadron("Lane", ship, {startX+(sin(60)*radius),startY-(cos(60)*radius),startZ+i*spacing}, -1, {0,0,-120},0,0)
		addSquadron("Lane", ship, {startX-(sin(60)*radius),startY-(cos(60)*radius),startZ+i*spacing}, -1, {0,0,120},0,0)
		i=i+1
	end
end
